
adamolacak26 	Domains 	Apps
Web416 - †37.58.75.233 	

    http://adamolacakminik.com

	

    osaom (Django on /)
    okuloncesi_blog (WordPress on /blog)

csby 	Domains 	Apps
Web416 - †37.58.75.233 	

    http://byvcrm.mertnuhoglu.com

	

    csby (Static/CGI/PHP on /)

derinakintilar 	Domains 	Apps
Web416 - †37.58.75.233 	

    http://derinakintilar.com
    http://www.derinakintilar.com

	

    dawp (WordPress on /)

dj02 	Domains 	Apps
Web416 - †37.58.75.233 	

    http://disticaret.mertnuhoglu.com
    http://forum.sosyaldunya.org
    http://ticariliman.com
    http://www.ticariliman.com
    http://test.mertnuhoglu.webfactional.com

	

    dj02 (Django on /)
    wpdt (WordPress on /disticaret)

enerjihavzasi 	Domains 	Apps
Web416 - †37.58.75.233 	

    http://enerjihavzasi.com

	

    oseh (Django on /)
    wpeh (WordPress on /b)

et03 	Domains 	Apps
Web416 - †37.58.75.233 	

    http://lokanta.eticaretmagazasi.com

	

    et03 (Drupal on /)

et04 	Domains 	Apps
Web416 - †37.58.75.233 	

    http://pazaryeri.eticaretmagazasi.com

	

    et04 (Drupal on /)

et05 	Domains 	Apps
Web416 - †37.58.75.233 	

    http://lale.eticaretmagazasi.com

	

    et05 (Drupal on /)

etm 	Domains 	Apps
Web416 - †37.58.75.233 	

    http://eticaretmagazasi.com
    http://www.eticaretmagazasi.com

	

    etwp (WordPress on /)

etm_demo 	Domains 	Apps
Web416 - †37.58.75.233 	

    http://demo.eticaretmagazasi.com

	

    This website has no apps attached.

etm_demo2 	Domains 	Apps
Web416 - †37.58.75.233 	

    This website has no domains attached.

	

    uc2 (Drupal on /)

gitw 	Domains 	Apps
Web416 - †37.58.75.233 	

    http://git.mertnuhoglu.com

	

    gitw (Git on /)

hasretnuhoglu 	Domains 	Apps
Web416 - †37.58.75.233 	

    http://www.hasretnuhoglu.com
    http://hasretnuhoglu.com

	

    wphn (WordPress on /)

hikmetplatformu 	Domains 	Apps
Web416 - †37.58.75.233 	

    http://hikmetplatformu.org

	

    oshp (Django on /)
    wphp (WordPress on /b)

jm01 	Domains 	Apps
Web416 - †37.58.75.233 	

    http://kariyer.mertnuhoglu.com
    http://test.hid.com.tr

	

    jm01 (Static/CGI/PHP on /)

mertnuhoglu 	Domains 	Apps
Web416 - †37.58.75.233 	

    http://mertnuhoglu.webfactional.com

	

    This website has no apps attached.

mertnuhoglu_web 	Domains 	Apps
Web416 - †37.58.75.233 	

    http://blog.simitbagel.com
    http://mertnuhoglu.com
    http://www.mertnuhoglu.com

	

    wpmn (WordPress on /)

mmgs 	Domains 	Apps
Web416 - †37.58.75.233 	

    http://magis.mertnuhoglu.com
    http://magis.com.tr
    http://www.magis.com.tr

	

    mmgs (WordPress on /)

munf 	Domains 	Apps
Web416 - †37.58.75.233 	

    http://www.unifimpapercup.com
    http://unifim.com
    http://www.unifim.com
    http://unifim.mertnuhoglu.com
    http://unifimpapercup.com

	

    mun3 (WordPress on /deutsch)
    mun2 (WordPress on /turkce)
    munf (WordPress on /)

oaym 	Domains 	Apps
Web416 - †37.58.75.233 	

    http://ayakmod.mertnuhoglu.com
    http://ayakmod.com
    http://www.ayakmod.com

	

    oaym (Static/CGI/PHP on /)

odfr 	Domains 	Apps
Web416 - †37.58.75.233 	

    http://delphiforumu.com

	

    odfr (Django on /)

okuloncesi 	Domains 	Apps
Web416 - †37.58.75.233 	

    This website has no domains attached.

	

    okuloncesi_blog (WordPress on /blog)

ot01 	Domains 	Apps
Web416 - †37.58.75.233 	

    http://opencart.mertnuhoglu.com

	

    ot01 (Static/CGI/PHP on /)

otbt 	Domains 	Apps
Web416 - †37.58.75.233 	

    http://store.btgrubu.com

	

    otbt (Static/CGI/PHP on /)

otmn 	Domains 	Apps
Web416 - †37.58.75.233 	

    http://osticket.mertnuhoglu.com

	

    otmn (Static/CGI/PHP on /)

otopazar 	Domains 	Apps
Web416 - †37.58.75.233 	

    http://otopazar.mertnuhoglu.com

	

    ozop (Static/CGI/PHP on /)

otrf 	Domains 	Apps
Web416 - †37.58.75.233 	

    http://turkrusforum.com

	

    otrf (Django on /)

paep 	Domains 	Apps
Web416 - †37.58.75.233 	

    http://aep.mertnuhoglu.com

	

    paep (WordPress on /)

pbys 	Domains 	Apps
Web416 - †37.58.75.233 	

    http://bys.mertnuhoglu.com

	

    pbys (WordPress on /)

pdad 	Domains 	Apps
Web416 - †37.58.75.233 	

    http://dersler.derinakintilar.com

	

    pdad (WordPress on /)

pdev 	Domains 	Apps
Web416 - †37.58.75.233 	

    http://dev.mertnuhoglu.com

	

    pdev (Static/CGI/PHP on /)

pdst 	Domains 	Apps
Web416 - †37.58.75.233 	

    http://destek.mertnuhoglu.com

	

    pdst (WordPress on /)

pibp 	Domains 	Apps
Web416 - †37.58.75.233 	

    http://ibpf.mertnuhoglu.com

	

    pibp (WordPress on /)

pifm 	Domains 	Apps
Web416 - †37.58.75.233 	

    http://ifm.mertnuhoglu.com

	

    pifm (WordPress on /)

pinf 	Domains 	Apps
Web416 - †37.58.75.233 	

    http://info.mertnuhoglu.com

	

    pinf (WordPress on /)

pjts 	Domains 	Apps
Web416 - †37.58.75.233 	

    http://jts.mertnuhoglu.com

	

    pjts (WordPress on /)

pnpn 	Domains 	Apps
Web416 - †37.58.75.233 	

    http://neselipanda.adamolacakminik.com

	

    pnpn (WordPress on /)

pokr 	Domains 	Apps
Web416 - †37.58.75.233 	

    http://otomotivkariyer.mertnuhoglu.com

	

    pokr (WordPress on /)

pomc 	Domains 	Apps
Web416 - †37.58.75.233 	

    http://ozgurunmaceralari.mertnuhoglu.com

	

    pomc (WordPress on /)

port 	Domains 	Apps
Web416 - †37.58.75.233 	

    http://ortak.mertnuhoglu.com

	

    port (WordPress on /)

ppnd 	Domains 	Apps
Web416 - †37.58.75.233 	

    http://panda.adamolacakminik.com

	

    ppnd (WordPress on /)

pqzz 	Domains 	Apps
Web416 - †37.58.75.233 	

    http://quozza.mertnuhoglu.com

	

    pqzz (WordPress on /)

pyeh 	Domains 	Apps
Web416 - †37.58.75.233 	

    http://ekip.enerjihavzasi.com
    http://enerji.mertnuhoglu.com

	

    pyeh (WordPress on /)

rbcc 	Domains 	Apps
Web416 - †37.58.75.233 	

    http://www.bircallcenter.com

	

    rbcc (Static/CGI/PHP on /)

rbgs 	Domains 	Apps
Web416 - †37.58.75.233 	

    http://www.burcuguzelliksalonu.com

	

    rbgs (Static/CGI/PHP on /)

rdaom 	Domains 	Apps
Web416 - †37.58.75.233 	

    http://www.adamolacakminik.com

	

    rdaom (Static/CGI/PHP on /)

rdeh 	Domains 	Apps
Web416 - †37.58.75.233 	

    http://www.enerjihavzasi.com

	

    rdeh (Static/CGI/PHP on /)

rdek 	Domains 	Apps
Web416 - †37.58.75.233 	

    http://www.ekonomicaddesi.com

	

    rdek (Static/CGI/PHP on /)

rdfr 	Domains 	Apps
Web416 - †37.58.75.233 	

    http://www.delphiforumu.com

	

    rdfr (Static/CGI/PHP on /)

rdhd 	Domains 	Apps
Web416 - †37.58.75.233 	

    http://hid.com.tr
    http://www.hid.com.tr

	

    rdhd (Static/CGI/PHP on /)

rdhp 	Domains 	Apps
Web416 - †37.58.75.233 	

    http://www.hikmetplatformu.org

	

    rdhp (Static/CGI/PHP on /)

rdtuf 	Domains 	Apps
Web416 - †37.58.75.233 	

    http://www.turkukraynaforum.com

	

    rdtuf (Static/CGI/PHP on /)

rduy 	Domains 	Apps
Web416 - †37.58.75.233 	

    http://www.uyumluyasam.com

	

    rduy (Static/CGI/PHP on /)

reoz 	Domains 	Apps
Web416 - †37.58.75.233 	

    http://www.elifozan.com

	

    reoz (Static/CGI/PHP on /)

rets 	Domains 	Apps
Web416 - †37.58.75.233 	

    http://www.eticaretsanati.com

	

    rets (Static/CGI/PHP on /)

rfhd2 	Domains 	Apps
Web416 - †37.58.75.233 	

    http://facebook.herinsandegerlidir.com

	

    rfhd2 (Static/CGI/PHP on /)

rfsdn 	Domains 	Apps
Web416 - †37.58.75.233 	

    http://facebook.sosyaldunya.org

	

    rfsdn (Static/CGI/PHP on /)

rhd2 	Domains 	Apps
Web416 - †37.58.75.233 	

    http://www.herinsandegerlidir.com

	

    rhd2 (Static/CGI/PHP on /)

rhor 	Domains 	Apps
Web416 - †37.58.75.233 	

    http://www.hilalorhan.com

	

    rhor (Static/CGI/PHP on /)

ribp 	Domains 	Apps
Web416 - †37.58.75.233 	

    This website has no domains attached.

	

    ribp (Static/CGI/PHP on /)

rigu 	Domains 	Apps
Web416 - †37.58.75.233 	

    http://www.isguvenligiuzmaniilanlari.com

	

    rigu (Static/CGI/PHP on /)

rkvt 	Domains 	Apps
Web416 - †37.58.75.233 	

    http://www.kilovat.co

	

    rkvt (Static/CGI/PHP on /)

rn2i 	Domains 	Apps
Web416 - †37.58.75.233 	

    http://www.net2ist.org

	

    rn2i (Static/CGI/PHP on /)

rozd 	Domains 	Apps
Web416 - †37.58.75.233 	

    http://www.ozcandinc.com

	

    rozd (Static/CGI/PHP on /)

rpbp 	Domains 	Apps
Web416 - †37.58.75.233 	

    http://www.burakpehlivan.org

	

    rpbp (Static/CGI/PHP on /)

rpci 	Domains 	Apps
Web416 - †37.58.75.233 	

    http://www.cocuklaricininternet.com

	

    rpci (Static/CGI/PHP on /)

rpsb 	Domains 	Apps
Web416 - †37.58.75.233 	

    http://www.sistemikbakis.com

	

    rpsb (Static/CGI/PHP on /)

rsdn 	Domains 	Apps
Web416 - †37.58.75.233 	

    http://www.sosyaldunya.org

	

    rsdn (Static/CGI/PHP on /)

rshf 	Domains 	Apps
Web416 - †37.58.75.233 	

    http://www.sofrahomemadefood.com

	

    rshf (Static/CGI/PHP on /)

rspr 	Domains 	Apps
Web416 - †37.58.75.233 	

    http://www.steelprofile.co

	

    rspr (Static/CGI/PHP on /)

rssh 	Domains 	Apps
Web416 - †37.58.75.233 	

    http://www.steelsheet.co

	

    rssh (Static/CGI/PHP on /)

rtdl 	Domains 	Apps
Web416 - †37.58.75.233 	

    http://www.tadil.at

	

    rtdl (Static/CGI/PHP on /)

rthd2 	Domains 	Apps
Web416 - †37.58.75.233 	

    http://twitter.herinsandegerlidir.com

	

    rthd2 (Static/CGI/PHP on /)

rtrf 	Domains 	Apps
Web416 - †37.58.75.233 	

    http://www.turkrusforum.com

	

    rtrf (Static/CGI/PHP on /)

rtsdn 	Domains 	Apps
Web416 - †37.58.75.233 	

    http://twitter.sosyaldunya.org

	

    rtsdn (Static/CGI/PHP on /)

rttt 	Domains 	Apps
Web416 - †37.58.75.233 	

    http://www.tinaztitiz.com

	

    rttt (Static/CGI/PHP on /)

ruzo 	Domains 	Apps
Web416 - †37.58.75.233 	

    http://www.ustunzekaliokullari.com

	

    ruzo (Static/CGI/PHP on /)

rvkr 	Domains 	Apps
Web416 - †37.58.75.233 	

    http://www.velikaratas.com

	

    rvkr (Static/CGI/PHP on /)

rw4i 	Domains 	Apps
Web416 - †37.58.75.233 	

    http://www.work4impact.com
    http://www.work4impact.org

	

    rw4i (Static/CGI/PHP on /)

rwba 	Domains 	Apps
Web416 - †37.58.75.233 	

    http://www.buyukanadolutipmerkezi.com

	

    rwba (Static/CGI/PHP on /)

sa_ekipler 	Domains 	Apps
Web416 - †37.58.75.233 	

    http://ekipler.sistemarilari.org

	

    saw3 (WordPress on /)

sa_gruplar 	Domains 	Apps
Web416 - †37.58.75.233 	

    http://gruplar.sistemarilari.org

	

    sawp (WordPress on /)

sa_projeler 	Domains 	Apps
Web416 - †37.58.75.233 	

    http://projeler.sistemarilari.org

	

    saw2 (WordPress on /)

sistemarilari 	Domains 	Apps
Web416 - †37.58.75.233 	

    http://sistemarilari.org
    http://www.sistemarilari.org

	

    wpsa (WordPress on /)

ssls 	Domains 	Apps
Web416 - †37.58.75.233 	

    http://slash.mertnuhoglu.com

	

    ssls (Static/CGI/PHP on /)

tbph 	Domains 	Apps
Web416 - †37.58.75.233 	

    http://test.burakpehlivan.org

	

    tbph (WordPress on /)

televizyon 	Domains 	Apps
Web416 - †37.58.75.233 	

    http://tv.adamolacakminik.com

	

    tvwp (WordPress on /)

tmn4 	Domains 	Apps
Web416 - †37.58.75.233 	

    http://test4.mertnuhoglu.com

	

    tmn4 (WordPress on /)

tmn5 	Domains 	Apps
Web416 - †37.58.75.233 	

    http://test5.mertnuhoglu.com

	

    tmn5 (WordPress on /)

to01 	Domains 	Apps
Web416 - †37.58.75.233 	

    http://testoc01.mertnuhoglu.com

	

    to01 (Static/CGI/PHP on /)

tpds 	Domains 	Apps
Web416 - †37.58.75.233 	

    This website has no domains attached.

	

    This website has no apps attached.

tpsb 	Domains 	Apps
Web416 - †37.58.75.233 	

    http://tpsb.mertnuhoglu.com

	

    tpsb (Node.js on /)

ttm3 	Domains 	Apps
Web416 - †37.58.75.233 	

    http://test3.mertnuhoglu.com

	

    ttm3 (WordPress on /)

turkukrayna26 	Domains 	Apps
Web416 - †37.58.75.233 	

    http://turkukraynaforum.com

	

    ostufs (Static on /static)
    ostuf (Django on /)
    roxalana_blog (WordPress on /blog)

uyumluyasam26 	Domains 	Apps
Web416 - †37.58.75.233 	

    http://uyumluyasam.com

	

    osuy (Django on /)
    sy_blog (WordPress on /b)

wbcc 	Domains 	Apps
Web416 - †37.58.75.233 	

    This website has no domains attached.

	

    wbcc (WordPress on /)

wbph 	Domains 	Apps
Web416 - †37.58.75.233 	

    http://burakpehlivan.org

	

    wpbp (WordPress on /)

weoz(disabled) 	Domains 	Apps
Web416 - †37.58.75.233 	

    http://elifozan.com

	

    weoz (WordPress on /)

wets 	Domains 	Apps
Web416 - †37.58.75.233 	

    http://eticaretsanati.com

	

    wets (WordPress on /)

whor 	Domains 	Apps
Web416 - †37.58.75.233 	

    http://hilalorhan.com

	

    whor (WordPress on /)

whsd 	Domains 	Apps
Web416 - †37.58.75.233 	

    http://haber.sosyaldunya.org

	

    whsd (WordPress on /)

wigu 	Domains 	Apps
Web416 - †37.58.75.233 	

    http://isguvenligiuzmaniilanlari.com

	

    wigu (WordPress on /)

wime(disabled) 	Domains 	Apps
Web416 - †37.58.75.233 	

    http://imesteel.com

	

    wime (WordPress on /)

wisp 	Domains 	Apps
Web416 - †37.58.75.233 	

    http://ipektensepet.mertnuhoglu.com

	

    wisp (WordPress on /)

wkvt 	Domains 	Apps
Web416 - †37.58.75.233 	

    http://kilovat.co

	

    wkvt (WordPress on /)

wmak 	Domains 	Apps
Web416 - †37.58.75.233 	

    http://akarsu.mertnuhoglu.com

	

    wmak (WordPress on /)

wmbl 	Domains 	Apps
Web416 - †37.58.75.233 	

    http://blog.mertnuhoglu.com

	

    wmbl (WordPress on /)

wmrf 	Domains 	Apps
Web416 - †37.58.75.233 	

    http://reflections.mertnuhoglu.com

	

    wmrf (WordPress on /)

wmsw 	Domains 	Apps
Web416 - †37.58.75.233 	

    http://software.mertnuhoglu.com

	

    wmsw (WordPress on /)

wmtf 	Domains 	Apps
Web416 - †37.58.75.233 	

    http://tefekkur.mertnuhoglu.com

	

    wmtf (WordPress on /)

wmyz 	Domains 	Apps
Web416 - †37.58.75.233 	

    http://yazilim.mertnuhoglu.com

	

    wmyz (WordPress on /)

wn2i 	Domains 	Apps
Web416 - †37.58.75.233 	

    http://net2ist.org
    http://net2ist.mertnuhoglu.com

	

    wn2i (WordPress on /)

wozd 	Domains 	Apps
Web416 - †37.58.75.233 	

    http://ozcandinc.com

	

    wozd (WordPress on /)

wpci 	Domains 	Apps
Web416 - †37.58.75.233 	

    http://cocuklaricininternet.com

	

    wpci (WordPress on /)

wphd(disabled) 	Domains 	Apps
Web416 - †37.58.75.233 	

    http://test.bircallcenter.com
    http://bircallcenter.com

	

    wphd (WordPress on /)

wphd2(disabled) 	Domains 	Apps
Web416 - †37.58.75.233 	

    http://hid.mertnuhoglu.com

	

    wphd (WordPress on /)

wpsb 	Domains 	Apps
Web416 - †37.58.75.233 	

    http://sistemikbakis.com

	

    wpsb (WordPress on /)

wpta 	Domains 	Apps
Web416 - †37.58.75.233 	

    http://trafikayisiyiz.biz
    http://www.trafikayisiyiz.biz

	

    wpta (WordPress on /)

wpym 	Domains 	Apps
Web416 - †37.58.75.233 	

    http://projeyonetimi.mertnuhoglu.com
    http://ekip.mertnuhoglu.com

	

    wpym (WordPress on /)

wpz2 	Domains 	Apps
Web416 - †37.58.75.233 	

    http://pazarz2.magis.com.tr
    http://pazarz2.mertnuhoglu.com

	

    wpz2 (WordPress on /)

wpzz 	Domains 	Apps
Web416 - †37.58.75.233 	

    http://pazarz.magis.com.tr
    http://pazarz.mertnuhoglu.com

	

    wpz3 (WordPress on /)

wsdn 	Domains 	Apps
Web416 - †37.58.75.233 	

    http://sosyaldunya.org

	

    wsdn (WordPress on /)

wshf 	Domains 	Apps
Web416 - †37.58.75.233 	

    http://sofrahomemadefood.com

	

    wshf (WordPress on /)

wsmm 	Domains 	Apps
Web416 - †37.58.75.233 	

    http://saygilimalimusavirlik.com

	

    wsmm (WordPress on /)

wspr 	Domains 	Apps
Web416 - †37.58.75.233 	

    http://steelprofile.co
    http://steel.mertnuhoglu.com

	

    wspr (WordPress on /)

wssh 	Domains 	Apps
Web416 - †37.58.75.233 	

    http://steel2.mertnuhoglu.com
    http://steelsheet.co

	

    wssh (WordPress on /)

wtdl 	Domains 	Apps
Web416 - †37.58.75.233 	

    http://tadil.at

	

    wtdl (WordPress on /)

wtm2 	Domains 	Apps
Web416 - †37.58.75.233 	

    http://test2.mertnuhoglu.com

	

    wtm2 (WordPress on /)

wtmn 	Domains 	Apps
Web416 - †37.58.75.233 	

    http://test.mertnuhoglu.com

	

    wtmn (WordPress on /)

wtms 	Domains 	Apps
Web416 - †37.58.75.233 	

    http://toastmasters.mertnuhoglu.com

	

    wtms (WordPress on /)

wtpd 	Domains 	Apps
Web416 - †37.58.75.233 	

    http://testpods.mertnuhoglu.com

	

    wtpd (Static/CGI/PHP on /)

wttt 	Domains 	Apps
Web416 - †37.58.75.233 	

    http://tinaztitiz.com
    http://tinaztitiz.mertnuhoglu.com

	

    wttt (WordPress on /)

wuzo 	Domains 	Apps
Web416 - †37.58.75.233 	

    http://ustunzekaliokullari.com
    http://yetenekenstitusu.com

	

    wuzo (WordPress on /)

wvkr 	Domains 	Apps
Web416 - †37.58.75.233 	

    http://velikaratas.com

	

    wvkr (WordPress on /)

ww4i 	Domains 	Apps
Web416 - †37.58.75.233 	

    http://work4impact.com
    http://work4impact.org

	

    ww4i (WordPress on /)

yunusteknoloji 	Domains 	Apps
Web416 - †37.58.75.233 	

    This website has no domains attached.

	

    This website has no apps attached.

zwba 	Domains 	Apps
Web416 - †37.58.75.233 	

    http://buyukanadolutipmerkezi.com

	

    zwba (WordPress on /)

zwgg 	Domains 	Apps
Web416 - †37.58.75.233 	

    http://the-or-ie.com

	

    zwgg (WordPress on /)



